Tidying Up With Marie Kondo purrr et al.
…
Using map() With Data Frames

(Fake) data similar to a study on cardiac events and air pollution

For each event (case) in this set, need to compare PM2.5 (air pollution) on the same day of week in the same month

ACS_events

## # A tibble: 621 x 3
##       id ref_date   blood_type
##    <int> <date>     <chr>     
##  1     1 2015-01-02 B         
##  2     2 2015-01-03 O         
##  3     3 2015-01-05 A         
##  4     4 2015-01-07 A         
##  5     5 2015-01-13 B         
##  6     6 2015-01-14 A         
##  7     7 2015-01-15 A         
##  8     8 2015-01-16 A         
##  9     9 2015-01-16 O         
## 10    10 2015-01-19 O         
## # ... with 611 more rows
…
Using map() With Data Frames

List columns

Each cell in id_date contains a list of 4 or 5 dates.

## # A tibble: 621 x 4
##       id ref_date   blood_type id_date   
##    <int> <date>     <chr>      <list>    
##  1     1 2015-01-02 B          <date [5]>
##  2     2 2015-01-03 O          <date [5]>
##  3     3 2015-01-05 A          <date [4]>
##  4     4 2015-01-07 A          <date [4]>
##  5     5 2015-01-13 B          <date [4]>
##  6     6 2015-01-14 A          <date [4]>
##  7     7 2015-01-15 A          <date [5]>
##  8     8 2015-01-16 A          <date [5]>
##  9     9 2015-01-16 O          <date [5]>
## 10    10 2015-01-19 O          <date [4]>
## # ... with 611 more rows

Using map() With Data Frames

Nesting and unnesting

unnested <- 
  nested %>% 
  unnest(id_date) %>% 
  arrange(id, id_date) %>% 
  mutate(event = ref_date == id_date)
unnested

## # A tibble: 2,725 x 5
##       id ref_date   blood_type id_date    event
##    <int> <date>     <chr>      <date>     <lgl>
##  1     1 2015-01-02 B          2015-01-02 TRUE 
##  2     1 2015-01-02 B          2015-01-09 FALSE
##  3     1 2015-01-02 B          2015-01-16 FALSE
##  4     1 2015-01-02 B          2015-01-23 FALSE
##  5     1 2015-01-02 B          2015-01-30 FALSE
##  6     2 2015-01-03 O          2015-01-03 TRUE 
##  7     2 2015-01-03 O          2015-01-10 FALSE
##  8     2 2015-01-03 O          2015-01-17 FALSE
##  9     2 2015-01-03 O          2015-01-24 FALSE
## 10     2 2015-01-03 O          2015-01-31 FALSE
## # ... with 2,715 more rows

Using map() With Data Frames

(Here’s how it ends):

unnested %>% 
  left_join(PM25, by = c("id_date" = "date"))

## # A tibble: 2,725 x 6
##       id ref_date   blood_type id_date    event  PM25
##    <int> <date>     <chr>      <date>     <lgl> <dbl>
##  1     1 2015-01-02 B          2015-01-02 TRUE  11.9 
##  2     1 2015-01-02 B          2015-01-09 FALSE 11.9 
##  3     1 2015-01-02 B          2015-01-16 FALSE 15.9 
##  4     1 2015-01-02 B          2015-01-23 FALSE  4.05
##  5     1 2015-01-02 B          2015-01-30 FALSE  6.22
##  6     2 2015-01-03 O          2015-01-03 TRUE   6.06
##  7     2 2015-01-03 O          2015-01-10 FALSE 15.3 
##  8     2 2015-01-03 O          2015-01-17 FALSE 15.1 
##  9     2 2015-01-03 O          2015-01-24 FALSE  8.48
## 10     2 2015-01-03 O          2015-01-31 FALSE 16.6 
## # ... with 2,715 more rows
…
